{"content":[{"idKaryawan":1,"createdDate":"2023-05-14T09:59:59.373+00:00","deletedDate":null,"updatedDate":"2023-05-14T09:59:59.373+00:00","alamat":"Bukittinggi","dob":"2001-08-01T00:00:00.000+00:00","jk":"Laki-Laki","nama":"asd","status":"Pegawai Tetap","detailKaryawan":{"idDetail":1,"nik":"1234567891011121","npwp":"1234567891011121"},"rekening":[],"karyawanTraining":[]},{"idKaryawan":2,"createdDate":"2023-05-14T10:00:18.033+00:00","deletedDate":null,"updatedDate":"2023-05-14T10:00:18.033+00:00","alamat":"Bukittinggi","dob":"2001-08-01T00:00:00.000+00:00","jk":"Laki-Laki","nama":"asd","status":"Pegawai Tetap","detailKaryawan":{"idDetail":2,"nik":"1234567891011121","npwp":"1234567891011121"},"rekening":[],"karyawanTraining":[]},{"idKaryawan":4,"createdDate":"2023-05-14T10:51:32.144+00:00","deletedDate":null,"updatedDate":"2023-05-14T10:51:32.144+00:00","alamat":"Jakarta","dob":"2001-08-01T00:00:00.000+00:00","jk":"Laki-Laki","nama":"asd","status":"Pegawai Tetap","detailKaryawan":{"idDetail":5,"nik":"1234567891011121","npwp":"1234567891011121"},"rekening":[],"karyawanTraining":[]}],"pageable":{"sort":{"empty":true,"sorted":false,"unsorted":true},"offset":0,"pageNumber":0,"pageSize":3,"paged":true,"unpaged":false},"last":false,"totalElements":4,"totalPages":2,"size":3,"number":0,"sort":{"empty":true,"sorted":false,"unsorted":true},"first":true,"numberOfElements":3,"empty":false}